{
    "fakerate_vs_$TRKTAG_inclusive" : {
        "type" : "TEfficiency",
        "xAxis" : { "title" : "Inclusive", "nBins" : "1", "low" : "0.0", "high" : "2.0" },
        "yAxis" : { "title" : "Fake rate" }
    },
    "fakerate_vs_$TRKTAG_pt" : {
        "type" : "TEfficiency",
        "xAxis" : { "title" : "$TRKTYPE p_{T} [GeV]", "nBins" : "100", "low" : "0.0", "high" : "50.0" },
        "yAxis" : { "title" : "Fake rate" }
    },
    "fakerate_vs_$TRKTAG_eta" : {
        "type" : "TEfficiency",
        "xAxis" : { "title" : "$TRKTYPE #eta", "nBins" : "20", "low" : "-$ETAMAX", "high" : "$ETAMAX" },
        "yAxis" : { "title" : "Fake rate" }
    },
    "fakerate_vs_$TRKTAG_phi" : {
        "type" : "TEfficiency",
        "xAxis" : { "title" : "$TRKTYPE #phi", "nBins" : "25", "low" : "-$PI", "high" : "$PI" },
        "yAxis" : { "title" : "Fake rate" }
    },
    "fakerate_vs_$TRKTAG_d0" : {
        "type" : "TEfficiency",
        "xAxis" : { "title" : "$TRKTYPE d_{0}", "nBins" : "100", "low" : "-25.0", "high" : "25.0" },
        "yAxis" : { "title" : "Fake rate" }
    },
    "fakerate_vs_$TRKTAG_z0" : {
        "type" : "TEfficiency",
        "xAxis" : { "title" : "$TRKTYPE z_{0}", "nBins" : "100", "low" : "-$Z0MAX", "high" : "$Z0MAX" },
        "yAxis" : { "title" : "Fake rate" }
    },
    "fakerate_vs_truthMu" : {
        "type" : "TEfficiency",
        "xAxis" : { "title" : "Truth <#mu>", "nBins" : "$NMUBINS", "low" : "0", "high" : "$EXPMUMAX" },
        "yAxis" : { "title" : "Fake rate" }
    },
    "fakerate_vs_actualMu" : {
        "type" : "TEfficiency",
        "xAxis" : { "title" : "Actual <#mu>", "nBins" : "$NMUBINS", "low" : "0", "high" : "$EXPMUMAX" },
        "yAxis" : { "title" : "Fake rate" }
    }
}
